Topics in Computational Social Science - Lab 3
…
# A tibble: 2 × 5
  death_rate_numerator death_rate_denominator death_rate tie       weights   
                 <dbl>                  <dbl>      <dbl> <chr>     <chr>     
1                  240                7117080      0.337 kin       Unweighted
2                  232                7880760      0.294 neighbour Unweighted

Poststratification weights

First, we’ll construct poststratification weights. We’ll use the same general approach as we did in Exercise 1.

## Look at weighting targets 
poststrat_weighting_targets

# A tibble: 78 × 4
   gender age_class health_zone population
   <chr>  <chr>     <chr>            <dbl>
 1 f      [25,35)   Kalemie         17886.
 2 f      [25,35)   Nyunzu          13278.
 3 f      [25,35)   Nyemba          22989.
 4 f      [25,35)   Kalemie         15550.
 5 f      [25,35)   Nyunzu          11544.
 6 f      [25,35)   Nyemba          19984.
 7 f      [35,45)   Kalemie         10983.
 8 f      [35,45)   Nyunzu           8154.
 9 f      [35,45)   Nyemba          14116.
10 f      [35,45)   Kalemie          6676.
# ℹ 68 more rows
…
